Getting started with happign • happign
…
After choosing the API key containing our resource, you can access all layer names with get_layers_metadata().

Rq :

This function can be a bit slow because it connects directly to the website so that the information is up to date.

*The returned data correspond to the intersection with the shape bbox.

apikey <- get_apikeys()[1]
get_layers_metadata(apikey = apikey, data_type = "wfs")
#> # A tibble: 36 x 8
#>    itemindex name            title abstract keywords defaultcrs wgs84boundingbox
#>        <int> <chr>           <chr> <chr>    <chr>    <chr>      <chr>           
#>  1         1 ADMINEXPRESS-C~ ADMI~ édition~ Unités ~ 4326       -61.80983861776~6~
#>  2         2 ADMINEXPRESS-C~ ADMI~ édition~ Unités ~ 4326       -61.80983861776~6~
#>  3         3 ADMINEXPRESS-C~ ADMI~ édition~ Unités ~ 4326       -61.80983861776~6~
#>  4         4 ADMINEXPRESS-C~ ADMI~ édition~ Unités ~ 4326       -61.80983861776~6~
#>  5         5 ADMINEXPRESS-C~ ADMI~ édition~ Unités ~ 4326       -61.80983861776~6~
#>  6         6 ADMINEXPRESS-C~ ADMI~ édition~ Unités ~ 4326       -61.80983861776~6~
#>  7         7 ADMINEXPRESS-C~ ADMI~ édition~ Unités ~ 4326       -61.80983861776~6~
#>  8         8 ADMINEXPRESS-C~ ADMI~ édition~ Unités ~ 4326       -61.80983861776~6~
#>  9         9 ADMINEXPRESS-C~ ADMI~ édition~ Unités ~ 4326       -61.80983861776~6~
#> 10        10 ADMINEXPRESS-C~ ADMI~ édition~ Unités ~ 4326       -61.80983861776~6~
#> # ... with 26 more rows, and 1 more variable: metadataurl <chr>
…
